[{
  "name": "Arman Suleimenov",
  "description": "CEO. Past: Princeton CS, Collections (Y Combinator S12), ACM ICPC World Finals 2009, 2011"
}, {
  "name": "Almas Tuyakbayev",
  "description": "COO. Past: Microsoft Imagine Cup 2008 World Finals, Carnegie Mellon University MHCI"
}, {
  "name": "Zhanserik Kenes",
  "description": "CTO, iOS development"
}, {
  "name": "Nurdaulet Bolatov",
  "description": "iOS development"
}, {
  "name": "Marat Shaken",
  "description": "Marketing"
}, {
  "name": "Allabergen Suleimenov",
  "description": "Android development"
}, {
  "name": "Ilyas Zholdasbayev",
  "description": "Game development"
}, {
  "name": "Hakim Yesenzhanov",
  "description": "Game development"
}, {
  "name": "Zhandos Nurakhmetov",
  "description": "iOS development, N17R Alumni"
}, {
  "name": "Galym Kulyn",
  "description": "iOS development, N17R Alumni"
}, {
  "name": "Islam Temirbek",
  "description": "iOS development, N17R Alumni"
}, {
  "name": "Danagul Utel",
  "description": "iOS development, N17R Alumni"
}, {
  "name": "Damir Kazbekov",
  "description": "iOS development, N17R Alumni"
}, {
  "name": "Dias Dosymbayev",
  "description": "iOS development, N17R Alumni"
}, {
  "name": "Yerkebulan Saparov",
  "description": "iOS development, N17R Alumni"
}, {
  "name": "Ainur Baizhumanova",
  "description": "iOS development, N17R Alumni"
}, {
  "name": "Mark Kim",
  "description": "iOS development, N17R Alumni"
}, {
  "name": "Vadim Miropolskii",
  "description": "iOS development, N17R Alumni"
}, {
  "name": "Kudaibergen Alimtayev",
  "description": "Android development, N17R Alumni"
}]